…
                              ypa  n
passer_id  passer    season
00-0035544 T.Kennedy 2021    75.0  1
00-0033132 K.Byard   2018    66.0  1
00-0031235 O.Beckham 2018    53.0  2
00-0030669 A.Wilson  2018    52.0  1
00-0029632 M.Sanu    2017    51.0  1
In  R,  use  arrange()  with  ypa  to  sort  the  outputs.  The  negative  sign  (—)  tells  R  to
reverse the order (for example, 7, 8, 9 becomes 9, 8, 7 when sorted):
## R
pbp_r_p_s |>
    arrange(-ypa) |>
    print()
Resulting in:
# A tibble: 746 × 5
   passer_player_name passer_player_id season   ypa     n
   <chr>              <chr>             <dbl> <dbl> <int>
 1 T.Kennedy          00-0035544         2021    75     1
 2 K.Byard            00-0033132         2018    66     1
 3 O.Beckham          00-0031235         2018    53     2
 4 A.Wilson           00-0030669         2018    52     1
 5 M.Sanu             00-0029632         2017    51     1
 6 C.McCaffrey        00-0033280         2018    50     1
 7 W.Snead            00-0030663         2016    50     1
 8 T.Boyd             00-0033009         2021    46     1
 9 R.Golden           00-0028954         2017    44     1
10 J.Crowder          00-0031941         2020    43     1
# ℹ 736 more rows
…
    group_by(season, rusher_id, rusher) |>
    summarize(
        n = n(),
        ryoe_total = sum(ryoe),
        ryoe_per = mean(ryoe),
        yards_per_carry = mean(rushing_yards)
    ) |>
    arrange(-ryoe_total) |>
    filter(n > 50)
print(ryoe_r)
70 
| 
Chapter 3: Simple Linear Regression: Rushing Yards Over Expected
Resulting in:
# A tibble: 534 × 7
# Groups:   season, rusher_id [534]
   season rusher_id  rusher        n ryoe_total ryoe_per yards_per_carry
    <dbl> <chr>      <chr>     <int>      <dbl>    <dbl>           <dbl>
 1   2021 00-0036223 J.Taylor    332       418.    1.26             5.45
 2   2020 00-0032764 D.Henry     397       363.    0.914            5.21
 3   2019 00-0034796 L.Jackson   135       354.    2.62             6.8
 4   2019 00-0032764 D.Henry     387       324.    0.837            5.13
 5   2020 00-0033293 A.Jones     222       288.    1.30             5.54
 6   2019 00-0031687 R.Mostert   190       282.    1.48             5.83
 7   2016 00-0033045 E.Elliott   344       279.    0.810            5.10
 8   2021 00-0034791 N.Chubb     228       276.    1.21             5.52
 9   2022 00-0034796 L.Jackson    73       276.    3.78             7.82
10   2020 00-0034791 N.Chubb     221       254.    1.15             5.48
# ℹ 524 more rows
…
One  interesting  quirk  of  the  NFL  data  is  that  only  designed  runs  for  quarterbacks
(plays  that  are  actually  running  plays  and  not  broken-down  passing  plays,  where
the  quarterback  pulls  the  ball  down  and  runs  with  it)  are  counted  in  this  dataset.
So  Jackson  generating  this  much  RYOE  on  just  a  subset  of  his  runs  is  incredibly
impressive.
Next, sort the data by RYOE per carry. We include only code for R, but the previous
Python code is readily adaptable:
## R
ryoe_r |>
    arrange(-ryoe_per)
Who Was the Best in RYOE? 
| 
71
Resulting in:
# A tibble: 534 × 7
# Groups:   season, rusher_id [534]
   season rusher_id  rusher         n ryoe_total ryoe_per yards_per_carry
    <dbl> <chr>      <chr>      <int>      <dbl>    <dbl>           <dbl>
 1   2022 00-0034796 L.Jackson     73      276.      3.78            7.82
 2   2019 00-0034796 L.Jackson    135      354.      2.62            6.8
 3   2019 00-0035228 K.Murray      56      122.      2.17            6.5
 4   2020 00-0034796 L.Jackson    121      249.      2.06            6.26
 5   2021 00-0034750 R.Penny      119      229.      1.93            6.29
 6   2022 00-0036945 J.Fields      85      160.      1.88            6
 7   2022 00-0033357 T.Hill        96      178.      1.86            5.99
 8   2021 00-0034253 D.Hilliard    56      101.      1.80            6.25
 9   2022 00-0034750 R.Penny       57       99.2     1.74            6.07
10   2019 00-0034400 J.Wilkins     51       87.8     1.72            6.02
# ℹ 524 more rows
…
    pbp_r_run |>
    group_by(season, rusher_id, rusher) |>
    summarize(
        n = n(), ryoe_total = sum(ryoe), ryoe_per = mean(ryoe),
        yards_per_carry = mean(rushing_yards)
    ) |>
    filter(n > 50)
Analyzing RYOE 
| 
101
ryoe_r |>
    arrange(-ryoe_total) |>
    print()
Resulting in:
# A tibble: 533 × 7
# Groups:   season, rusher_id [533]
   season rusher_id  rusher        n ryoe_total ryoe_per yards_per_carry
    <dbl> <chr>      <chr>     <int>      <dbl>    <dbl>           <dbl>
 1   2021 00-0036223 J.Taylor    332       471.    1.42             5.45
 2   2020 00-0032764 D.Henry     395       346.    0.876            5.23
 3   2019 00-0034796 L.Jackson   126       329.    2.61             6.88
 4   2019 00-0032764 D.Henry     386       312.    0.807            5.15
 5   2020 00-0033293 A.Jones     221       302.    1.37             5.57
 6   2022 00-0034796 L.Jackson    72       281.    3.90             7.93
 7   2019 00-0031687 R.Mostert   190       274.    1.44             5.83
 8   2016 00-0033045 E.Elliott   342       274.    0.800            5.14
 9   2020 00-0034796 L.Jackson   118       258.    2.19             6.42
10   2021 00-0034791 N.Chubb     228       248.    1.09             5.52
# ℹ 523 more rows
Then sort by mean RYOE per carry in R:
## R
ryoe_r |>
    filter(n > 50) |>
    arrange(-ryoe_per) |>
    print()
Resulting in:
# A tibble: 533 × 7
# Groups:   season, rusher_id [533]
   season rusher_id  rusher        n ryoe_total ryoe_per yards_per_carry
    <dbl> <chr>      <chr>     <int>      <dbl>    <dbl>           <dbl>
 1   2022 00-0034796 L.Jackson    72      281.      3.90            7.93
 2   2019 00-0034796 L.Jackson   126      329.      2.61            6.88
 3   2019 00-0035228 K.Murray     53      138.      2.60            6.87
 4   2022 00-0036945 J.Fields     77      177.      2.30            6.51
 5   2020 00-0034796 L.Jackson   118      258.      2.19            6.42
 6   2017 00-0027939 C.Newton     92      191.      2.08            6.17
 7   2020 00-0035228 K.Murray     70      144.      2.06            6.06
 8   2021 00-0034750 R.Penny     119      242.      2.03            6.29
 9   2019 00-0034400 J.Wilkins    51       97.8     1.92            6.02
10   2022 00-0033357 T.Hill       95      171.      1.80            6.05
# ℹ 523 more rows
…
123
In R, calculate the mean CPOE and the mean completed pass percentage (compl), and
then arrange by compl:
## R
pbp_r_pass |>
  group_by(season, passer_id, passer) |>
  summarize(n = n(),
            cpoe = mean(cpoe, na.rm = TRUE),
            compl = mean(complete_pass, na.rm = TRUE),
            .groups = "drop") |>
  filter(n >= 100) |>
  arrange(-cpoe) |>
  print(n = 20)
Resulting in:
# A tibble: 300 × 6
   season passer_id  passer            n   cpoe compl
    <dbl> <chr>      <chr>         <int>  <dbl> <dbl>
 1   2019 00-0020531 D.Brees         406 0.0941 0.756
 2   2018 00-0020531 D.Brees         566 0.0865 0.739
 3   2020 00-0033537 D.Watson        542 0.0735 0.705
 4   2020 00-0033357 T.Hill          121 0.0725 0.727
 5   2016 00-0026143 M.Ryan          631 0.0689 0.702
 6   2019 00-0029701 R.Tannehill     343 0.0689 0.691
 7   2020 00-0023459 A.Rodgers       607 0.0618 0.705
 8   2017 00-0020531 D.Brees         606 0.0593 0.716
 9   2018 00-0026143 M.Ryan          607 0.0590 0.695
10   2021 00-0036442 J.Burrow        659 0.0564 0.703
11   2016 00-0020531 D.Brees         664 0.0548 0.708
12   2018 00-0032950 C.Wentz         399 0.0546 0.699
13   2018 00-0023682 R.Fitzpatrick   246 0.0541 0.667
14   2022 00-0030565 G.Smith         605 0.0539 0.701
15   2016 00-0027854 S.Bradford      551 0.0529 0.717
16   2018 00-0029604 K.Cousins       603 0.0525 0.705
17   2017 00-0031345 J.Garoppolo     176 0.0493 0.682
18   2022 00-0031503 J.Winston       113 0.0488 0.646
19   2021 00-0023459 A.Rodgers       556 0.0482 0.694
20   2020 00-0034857 J.Allen         692 0.0478 0.684
# ℹ 280 more rows
…
  group_by(season, passer_id, passer) |>
  summarize(n = n(),
            cpoe = mean(cpoe , na.rm = TRUE),
            compl = mean(complete_pass),
            exp_completion = mean(exp_completion),
            .groups = "drop") |>
  filter(n > 100)
Finally, print the top 20 entries (we encourage you to print more, as we print only a
limited number of rows to save page space):
## R
cpoe_more_r |>
  arrange(-cpoe) |>
  print(n = 20)
Resulting in:
# A tibble: 300 × 7
   season passer_id  passer            n   cpoe compl exp_completion
    <dbl> <chr>      <chr>         <int>  <dbl> <dbl>          <dbl>
 1   2018 00-0020531 D.Brees         566 0.0889 0.739          0.650
 2   2019 00-0020531 D.Brees         406 0.0879 0.756          0.668
 3   2020 00-0033357 T.Hill          121 0.0830 0.727          0.644
 4   2016 00-0026143 M.Ryan          631 0.0776 0.702          0.624
 5   2020 00-0033537 D.Watson        542 0.0728 0.705          0.632
 6   2019 00-0029701 R.Tannehill     343 0.0667 0.691          0.624
 7   2016 00-0027854 S.Bradford      551 0.0615 0.717          0.655
GLM Application to Completion Percentage 
| 
127
 8   2018 00-0023682 R.Fitzpatrick   246 0.0613 0.667          0.605
 9   2020 00-0023459 A.Rodgers       607 0.0612 0.705          0.644
10   2018 00-0026143 M.Ryan          607 0.0597 0.695          0.636
11   2018 00-0032950 C.Wentz         399 0.0582 0.699          0.641
12   2017 00-0020531 D.Brees         606 0.0574 0.716          0.659
13   2021 00-0036442 J.Burrow        659 0.0559 0.703          0.647
14   2016 00-0025708 M.Moore         122 0.0556 0.689          0.633
15   2022 00-0030565 G.Smith         605 0.0551 0.701          0.646
16   2021 00-0023459 A.Rodgers       556 0.0549 0.694          0.639
17   2017 00-0031345 J.Garoppolo     176 0.0541 0.682          0.628
18   2018 00-0033537 D.Watson        548 0.0539 0.682          0.629
19   2019 00-0029263 R.Wilson        573 0.0538 0.663          0.609
20   2018 00-0029604 K.Cousins       603 0.0533 0.705          0.652
# ℹ 280 more rows
…
                          Tm == "OAK" ~ "LVR",
                          Tm == "STL" ~ "LAR",
                          TRUE ~ Tm),
            DrAV = ifelse(is.na(DrAV), 0, DrAV))
write_csv(draft_r, "draft_data_r.csv")
draft_r <- read_csv( "draft_data_r.csv")
Now that you have data, use  select() to grab the data you’ll need for the analysis
later:
## R
draft_r_use <-
    draft_r |>
    select(Season, Pick, Tm, Player, Pos, wAV, DrAV)
print(draft_r_use)
Resulting in:
# A tibble: 5,871 × 7
   Season  Pick Tm    Player             Pos     wAV  DrAV
    <dbl> <dbl> <chr> <chr>              <chr> <dbl> <dbl>
 1   2000     1 CLE   Courtney Brown     DE       27    21
 2   2000     2 WAS   LaVar Arrington    LB       46    45
 3   2000     3 WAS   Chris Samuels      T        63    63
 4   2000     4 CIN   Peter Warrick      WR       27    25
 5   2000     5 BAL   Jamal Lewis        RB       69    53
 6   2000     6 PHI   Corey Simon        DT       45    41
 7   2000     7 ARI   Thomas Jones       RB       62     7
 8   2000     8 PIT   Plaxico Burress    WR       70    34
 9   2000     9 CHI   Brian Urlacher HOF LB      119   119
10   2000    10 BAL   Travis Taylor      WR       30    23
# ℹ 5,861 more rows
…
